<?xml version="1.0" encoding="UTF-8"?>
<svg xmlns="http://www.w3.org/2000/svg" xmlns:xlink="http://www.w3.org/1999/xlink" width="450"
    height="450" viewBox="0 -450 450 450">
    <defs>
    </defs>
    <rect x="45" y="-90" width="45" height="45" fill="#f9c970" strokewidth="0" />
    <rect x="90" y="-90" width="45" height="45" fill="#aa7106" strokewidth="0" />
    <rect x="135" y="-90" width="45" height="45" fill="#f9c970" strokewidth="0" />
    <rect x="180" y="-90" width="45" height="45" fill="#aa7106" strokewidth="0" />
    <rect x="225" y="-90" width="45" height="45" fill="#f9c970" strokewidth="0" />
    <rect x="270" y="-90" width="45" height="45" fill="#aa7106" strokewidth="0" />
    <rect x="315" y="-90" width="45" height="45" fill="#f9c970" strokewidth="0" />
    <rect x="360" y="-90" width="45" height="45" fill="#aa7106" strokewidth="0" />
    <rect x="45" y="-135" width="45" height="45" fill="#aa7106" strokewidth="0" />
    <rect x="90" y="-135" width="45" height="45" fill="#f9c970" strokewidth="0" />
    <rect x="135" y="-135" width="45" height="45" fill="#aa7106" strokewidth="0" />
    <rect x="180" y="-135" width="45" height="45" fill="#f9c970" strokewidth="0" />
    <rect x="225" y="-135" width="45" height="45" fill="#aa7106" strokewidth="0" />
    <rect x="270" y="-135" width="45" height="45" fill="#f9c970" strokewidth="0" />
    <rect x="315" y="-135" width="45" height="45" fill="#aa7106" strokewidth="0" />
    <rect x="360" y="-135" width="45" height="45" fill="#f9c970" strokewidth="0" />
    <rect x="45" y="-180" width="45" height="45" fill="#f9c970" strokewidth="0" />
    <rect x="90" y="-180" width="45" height="45" fill="#aa7106" strokewidth="0" />
    <rect x="135" y="-180" width="45" height="45" fill="#f9c970" strokewidth="0" />
    <rect x="180" y="-180" width="45" height="45" fill="#aa7106" strokewidth="0" />
    <rect x="225" y="-180" width="45" height="45" fill="#f9c970" strokewidth="0" />
    <rect x="270" y="-180" width="45" height="45" fill="#aa7106" strokewidth="0" />
    <rect x="315" y="-180" width="45" height="45" fill="#f9c970" strokewidth="0" />
    <rect x="360" y="-180" width="45" height="45" fill="#aa7106" strokewidth="0" />
    <rect x="45" y="-225" width="45" height="45" fill="#aa7106" strokewidth="0" />
    <rect x="90" y="-225" width="45" height="45" fill="#f9c970" strokewidth="0" />
    <rect x="135" y="-225" width="45" height="45" fill="#aa7106" strokewidth="0" />
    <rect x="180" y="-225" width="45" height="45" fill="#f9c970" strokewidth="0" />
    <rect x="225" y="-225" width="45" height="45" fill="#aa7106" strokewidth="0" />
    <rect x="270" y="-225" width="45" height="45" fill="#f9c970" strokewidth="0" />
    <rect x="315" y="-225" width="45" height="45" fill="#aa7106" strokewidth="0" />
    <rect x="360" y="-225" width="45" height="45" fill="#f9c970" strokewidth="0" />
    <rect x="45" y="-270" width="45" height="45" fill="#f9c970" strokewidth="0" />
    <rect x="90" y="-270" width="45" height="45" fill="#aa7106" strokewidth="0" />
    <rect x="135" y="-270" width="45" height="45" fill="#f9c970" strokewidth="0" />
    <rect x="180" y="-270" width="45" height="45" fill="#aa7106" strokewidth="0" />
    <rect x="225" y="-270" width="45" height="45" fill="#f9c970" strokewidth="0" />
    <rect x="270" y="-270" width="45" height="45" fill="#aa7106" strokewidth="0" />
    <rect x="315" y="-270" width="45" height="45" fill="#f9c970" strokewidth="0" />
    <rect x="360" y="-270" width="45" height="45" fill="#aa7106" strokewidth="0" />
    <rect x="45" y="-315" width="45" height="45" fill="#aa7106" strokewidth="0" />
    <rect x="90" y="-315" width="45" height="45" fill="#f9c970" strokewidth="0" />
    <rect x="135" y="-315" width="45" height="45" fill="#aa7106" strokewidth="0" />
    <rect x="180" y="-315" width="45" height="45" fill="#f9c970" strokewidth="0" />
    <rect x="225" y="-315" width="45" height="45" fill="#aa7106" strokewidth="0" />
    <rect x="270" y="-315" width="45" height="45" fill="#f9c970" strokewidth="0" />
    <rect x="315" y="-315" width="45" height="45" fill="#aa7106" strokewidth="0" />
    <rect x="360" y="-315" width="45" height="45" fill="#f9c970" strokewidth="0" />
    <rect x="45" y="-360" width="45" height="45" fill="#f9c970" strokewidth="0" />
    <rect x="90" y="-360" width="45" height="45" fill="#aa7106" strokewidth="0" />
    <rect x="135" y="-360" width="45" height="45" fill="#f9c970" strokewidth="0" />
    <rect x="180" y="-360" width="45" height="45" fill="#aa7106" strokewidth="0" />
    <rect x="225" y="-360" width="45" height="45" fill="#f9c970" strokewidth="0" />
    <rect x="270" y="-360" width="45" height="45" fill="#aa7106" strokewidth="0" />
    <rect x="315" y="-360" width="45" height="45" fill="#f9c970" strokewidth="0" />
    <rect x="360" y="-360" width="45" height="45" fill="#aa7106" strokewidth="0" />
    <rect x="45" y="-405" width="45" height="45" fill="#aa7106" strokewidth="0" />
    <rect x="90" y="-405" width="45" height="45" fill="#f9c970" strokewidth="0" />
    <rect x="135" y="-405" width="45" height="45" fill="#aa7106" strokewidth="0" />
    <rect x="180" y="-405" width="45" height="45" fill="#f9c970" strokewidth="0" />
    <rect x="225" y="-405" width="45" height="45" fill="#aa7106" strokewidth="0" />
    <rect x="270" y="-405" width="45" height="45" fill="#f9c970" strokewidth="0" />
    <rect x="315" y="-405" width="45" height="45" fill="#aa7106" strokewidth="0" />
    <rect x="360" y="-405" width="45" height="45" fill="#f9c970" strokewidth="0" />

    <g id="diag_1">
        <line x1="67.5" y1="-382.5" x2="382.5" y2="-67.5" stroke="#233347" stroke-dasharray="3,1" stroke-width="3"/>
        <line x1="382.5" y1="-77.5" x2="382.5" y2="-67.5" stroke="#233347" stroke-dasharray="3,1" stroke-width="3"/>
        <line x1="372.5" y1="-67.5" x2="382.5" y2="-67.5" stroke="#233347" stroke-dasharray="3,1" stroke-width="3"/>
    </g>
    
    <g id="diag_2">
        <line x1="112.5" y1="-382.5" x2="382.5" y2="-112.5" stroke="#233347" stroke-dasharray="3,1" stroke-width="3"/>
        <line x1="382.5" y1="-122.5" x2="382.5" y2="-112.5" stroke="#233347" stroke-dasharray="3,1" stroke-width="3"/>
        <line x1="372.5" y1="-112.5" x2="382.5" y2="-112.5" stroke="#233347" stroke-dasharray="3,1" stroke-width="3"/>
    </g>
    <use xlink:href="#diag_2" transform="translate(-45,45)" />
    
    <g id="diag_3">
        <line x1="157.5" y1="-382.5" x2="382.5" y2="-157.5" stroke="#233347" stroke-dasharray="3,1" stroke-width="3"/>
        <line x1="382.5" y1="-167.5" x2="382.5" y2="-157.5" stroke="#233347" stroke-dasharray="3,1" stroke-width="3"/>
        <line x1="372.5" y1="-157.5" x2="382.5" y2="-157.5" stroke="#233347" stroke-dasharray="3,1" stroke-width="3"/>
    </g>
    <use xlink:href="#diag_3" transform="translate(-90,90)" />
   
    <g id="diag_4">
        <line x1="202.5" y1="-382.5" x2="382.5" y2="-202.5" stroke="#233347" stroke-dasharray="3,1" stroke-width="3"/>
        <line x1="382.5" y1="-212.5" x2="382.5" y2="-202.5" stroke="#233347" stroke-dasharray="3,1" stroke-width="3"/>
        <line x1="372.5" y1="-202.5" x2="382.5" y2="-202.5" stroke="#233347" stroke-dasharray="3,1" stroke-width="3"/>
    </g>
    <use xlink:href="#diag_4" transform="translate(-135,135)" />
   
    <g id="diag_5">
        <line x1="247.5" y1="-382.5" x2="382.5" y2="-247.5" stroke="#233347" stroke-dasharray="3,1" stroke-width="3"/>
        <line x1="382.5" y1="-257.5" x2="382.5" y2="-247.5" stroke="#233347" stroke-dasharray="3,1" stroke-width="3"/>
        <line x1="372.5" y1="-247.5" x2="382.5" y2="-247.5" stroke="#233347" stroke-dasharray="3,1" stroke-width="3"/>
    </g>
    <use xlink:href="#diag_5" transform="translate(-180,180)" />
   
    <g id="diag_6">
        <line x1="292.5" y1="-382.5" x2="382.5" y2="-292.5" stroke="#233347" stroke-dasharray="3,1" stroke-width="3"/>
        <line x1="382.5" y1="-302.5" x2="382.5" y2="-292.5" stroke="#233347" stroke-dasharray="3,1" stroke-width="3"/>
        <line x1="372.5" y1="-292.5" x2="382.5" y2="-292.5" stroke="#233347" stroke-dasharray="3,1" stroke-width="3"/>
    </g>
    <use xlink:href="#diag_6" transform="translate(-225,225)" />
   
    <g id="diag_7">
        <line x1="337.5" y1="-382.5" x2="382.5" y2="-337.5" stroke="#233347" stroke-dasharray="3,1" stroke-width="3"/>
        <line x1="382.5" y1="-347.5" x2="382.5" y2="-337.5" stroke="#233347" stroke-dasharray="3,1" stroke-width="3"/>
        <line x1="372.5" y1="-337.5" x2="382.5" y2="-337.5" stroke="#233347" stroke-dasharray="3,1" stroke-width="3"/>
    </g>
    <use xlink:href="#diag_7" transform="translate(-270,270)" />

    

</svg>