<svg width="800" height="600" xmlns="http://www.w3.org/2000/svg">

    <rect stroke-width="5" id="svg_1" height="74" width="124" y="111.8" x="176" stroke="#3259d0"
        fill="#e3e5ff" />
    <line id="svg_2" y2="186.8" x2="249" y1="112.8" x1="249" stroke-width="5" stroke="#3259d0"
        fill="none" />

    <line id="svg_48" y2="243.8" x2="381" y1="147.8" x1="269" stroke-width="5" stroke="#22d03f"
        fill="none" />

    <rect stroke-width="5" id="svg_3" height="74" width="124" y="204.8" x="382" stroke="#3259d0"
        fill="#e3e5ff" />
    <line id="svg_4" y2="279.8" x2="455" y1="205.8" x1="455" stroke-width="5" stroke="#3259d0"
        fill="none" />

    <rect stroke-width="5" id="svg_18" height="74" width="75" y="111.8" x="16" stroke="#3259d0"
        fill="#e3e5ff" />

    <ellipse ry="9" rx="8" id="svg_19" cy="148.8" cx="54" stroke-width="5" stroke="#22d03f"
        fill="#22d03f" />
    <line id="svg_20" y2="147.8" x2="174" y1="148.8" x1="54" stroke-width="5" stroke="#22d03f"
        fill="none" />

    <rect stroke-width="5" id="svg_22" height="74" width="124" y="335.8" x="176" stroke="#3259d0"
        fill="#e3e5ff" />
    <line id="svg_23" y2="410.8" x2="249" y1="336.8" x1="249" stroke-width="5" stroke="#3259d0"
        fill="none" />

    <rect stroke-width="5" id="svg_24" height="74" width="124" y="427.8" x="382" stroke="#4e4e4e"
        fill="#c6c6c6" />
    <line id="svg_25" y2="503.8" x2="455" y1="429.8" x1="455" stroke-width="5" stroke="#4e4e4e"
        fill="none" />

    <rect stroke-width="5" id="svg_26" height="74" width="124" y="335.8" x="577" stroke="#3259d0"
        fill="#e3e5ff" />
    <line id="svg_27" y2="410.8" x2="650" y1="336.8" x1="650" stroke-width="5" stroke="#3259d0"
        fill="none" />

    <line stroke-dasharray="5,5" id="svg_29" y2="466.8" x2="380" y1="374" x1="273" stroke-width="5"
        stroke="#4e4e4e" fill="none" />
    <ellipse ry="9" rx="8" id="svg_28" cy="374" cx="275.5" stroke-width="5" stroke="#22d03f"
        fill="#22d03f" />

    <ellipse ry="9" rx="8" id="svg_30" cy="466.8" cx="479.5" stroke-width="5" stroke="#4e4e4e"
        fill="#4e4e4e" />
    <line stroke-dasharray="5,5" id="svg_31" y2="375" x2="571" y1="462.80002" x1="479.5"
        stroke-width="5" stroke="#4e4e4e" fill="none" />

    <ellipse ry="9" rx="8" id="svg_8" cy="149.8" cx="275.5" stroke-width="5" stroke="#22d03f"
        fill="#22d03f" />
    <line id="svg_9" y2="375.79999" x2="574.39998" y1="376.79999" x1="275.5" stroke-width="5"
        stroke="#22d03f" fill="none" />

    <ellipse ry="9" rx="8" id="svg_35" cy="369.8" cx="675.5" stroke-width="5" stroke="#22d03f"
        fill="#22d03f" />
    <line id="svg_36" y2="368.8" x2="771" y1="368.8" x1="675.5" stroke-width="5" stroke="#22d03f"
        fill="none" />

    <rect stroke-width="5" id="svg_37" height="74" width="75" y="335.8" x="16" stroke="#3259d0"
        fill="#e3e5ff" />
    <ellipse ry="9" rx="8" id="svg_38" cy="372.8" cx="54" stroke-width="5" stroke="#22d03f"
        fill="#22d03f" />
    <line id="svg_39" y2="370.8" x2="173.5" y1="371.8" x1="54" stroke-width="5" stroke="#22d03f"
        fill="none" />

    <ellipse ry="9" rx="8" id="svg_11" cy="242.8" cx="479.5" stroke-width="5" stroke="#22d03f"
        fill="#22d03f" />
    <line id="svg_12" y2="145.8" x2="576" y1="238.80002" x1="479.5" stroke-width="5" stroke="#22d03f"
        fill="none" />

    <rect stroke-width="5" id="svg_5" height="74" width="124" y="111.8" x="577" stroke="#3259d0"
        fill="#e3e5ff" />
    <line id="svg_6" y2="186.8" x2="650" y1="112.8" x1="650" stroke-width="5" stroke="#3259d0"
        fill="none" />

    <ellipse ry="9" rx="8" id="svg_16" cy="145.8" cx="675.5" stroke-width="5" stroke="#22d03f"
        fill="#22d03f" />
    <line id="svg_17" y2="144.8" x2="771" y1="144.8" x1="673" stroke-width="5" stroke="#22d03f"
        fill="none" />

    <text xml:space="preserve" text-anchor="start" font-family="Arial, Helvetica, sans-serif"
        font-size="24" id="svg_21" y="103.8" x="13" stroke-width="0" stroke="#3259d0"
        fill="#585858">Locomotive</text>
    <text xml:space="preserve" text-anchor="start" font-family="Arial, Helvetica, sans-serif"
        font-size="24" id="svg_13" y="154.8" x="196" stroke-width="0" stroke="#3259d0"
        fill="#000000">blé</text>
    <text xml:space="preserve" text-anchor="start" font-family="Arial, Helvetica, sans-serif"
        font-size="24" id="svg_14" y="247.8" x="404" stroke-width="0" stroke="#3259d0"
        fill="#000000">riz</text>
    <text xml:space="preserve" text-anchor="start" font-family="Arial, Helvetica, sans-serif"
        font-size="24" id="svg_15" y="154.8" x="586" stroke-width="0" stroke="#3259d0"
        fill="#000000">sable</text>
    <text xml:space="preserve" text-anchor="start" font-family="Arial, Helvetica, sans-serif"
        font-size="24" id="svg_32" y="378.8" x="196" stroke-width="0" stroke="#3259d0"
        fill="#000000">blé</text>
    <text xml:space="preserve" text-anchor="start" font-family="Arial, Helvetica, sans-serif"
        font-size="24" id="svg_33" y="471.8" x="404" stroke-width="0" stroke="#3259d0"
        fill="#000000">riz</text>
    <text xml:space="preserve" text-anchor="start" font-family="Arial, Helvetica, sans-serif"
        font-size="24" id="svg_34" y="378.8" x="586" stroke-width="0" stroke="#3259d0"
        fill="#000000">sable</text>
    <text xml:space="preserve" text-anchor="start" font-family="Arial, Helvetica, sans-serif"
        font-size="24" id="svg_40" y="327.8" x="13" stroke-width="0" stroke="#3259d0"
        fill="#585858">Locomotive</text>

    <path id="svg_46"
        d="m756.58304,137.91688l6.54614,-7.27347l6.95386,7.72643l6.95386,-7.72643l6.5462,7.27347l-6.95386,7.72649l6.95386,7.72649l-6.5462,7.27354l-6.95386,-7.7265l-6.95386,7.7265l-6.54614,-7.27354l6.9538,-7.72649l-6.9538,-7.72649z"
        stroke-width="1" stroke="#ff0000" fill="#ff0000" />
    <path id="svg_47"
        d="m756.58304,360.91688l6.54614,-7.27347l6.95386,7.72643l6.95386,-7.72643l6.5462,7.27347l-6.95386,7.72649l6.95386,7.72649l-6.5462,7.27354l-6.95386,-7.7265l-6.95386,7.7265l-6.54614,-7.27354l6.9538,-7.72649l-6.9538,-7.72649z"
        stroke-width="1" stroke="#ff0000" fill="#ff0000" />

</svg>