<?xml version="1.0" encoding="UTF-8"?>
<svg xmlns="http://www.w3.org/2000/svg" xmlns:xlink="http://www.w3.org/1999/xlink"
     width="40" height="48" viewBox="-20 -40 40 48">
<defs>
</defs>
<path d="M0,-32 L-10,0" fill="none" stroke-width="4" stroke="grey" />
<circle cx="-10" cy="0" r="4" fill="red" stroke-width="2" stroke="grey" />
<circle cx="-10" cy="0" r="4" fill="red" stroke-width="2" stroke="grey" />
<path d="M0,-32 L10,0" fill="none" stroke-width="4" stroke="grey" />
<circle cx="10" cy="0" r="4" fill="red" stroke-width="2" stroke="grey" />
<circle cx="10" cy="0" r="4" fill="red" stroke-width="2" stroke="grey" />
<circle cx="0" cy="-32" r="4" fill="red" stroke-width="2" stroke="grey" />
</svg>